<svg xmlns="http://www.w3.org/2000/svg" viewBox="-8656.266 15771.043 11.365 11.973">
  <defs>
    <style>
      .cls-1 {
        fill: none;
        stroke: #009688;
        stroke-width: 2px;
      }
    </style>
  </defs>
  <path id="Path_307" data-name="Path 307" class="cls-1" d="M-4790.222,13854.1l-6.614,9.887-3.24-3" transform="translate(-3855.509 1917.499)"/>
</svg>
