<svg xmlns="http://www.w3.org/2000/svg" viewBox="12426.026 -3004.09 32.063 32.063">
  <defs>
    <style>
      .cls-1 {
        fill: rgba(0,0,0,0);
      }

      .cls-1, .cls-2 {
        stroke: #162939;
        stroke-width: 4px;
      }

      .cls-2 {
        fill: none;
      }
    </style>
  </defs>
  <g id="Group_1139" data-name="Group 1139" transform="translate(11192.94 -3483.175)">
    <g id="Group_310" data-name="Group 310" transform="translate(1234.5 480.5)">
      <path id="Path_273" data-name="Path 273" class="cls-1" d="M0,0,29.234,29.234"/>
      <line id="Line_22" data-name="Line 22" class="cls-2" x2="29.234" y2="29.234" transform="translate(29.234) rotate(90)"/>
    </g>
  </g>
</svg>
