<svg xmlns="http://www.w3.org/2000/svg" viewBox="-19 9919 40 40">
  <defs>
    <style>
      .cls-1 {
        fill: #162939;
      }

      .cls-2 {
        fill: #00b6d6;
      }
    </style>
  </defs>
  <g id="Group_642" data-name="Group 642" transform="translate(-19 9919)">
    <g id="Group_573" data-name="Group 573">
      <path id="Path_397" data-name="Path 397" class="cls-1" d="M20,0A20,20,0,1,1,0,20,20.037,20.037,0,0,1,20,0Zm0,37.966A17.966,17.966,0,1,0,2.034,20,18,18,0,0,0,20,37.966Z"/>
    </g>
    <g id="Group_575" data-name="Group 575" transform="translate(12.983 5.966)">
      <g id="Group_574" data-name="Group 574">
        <path id="Path_398" data-name="Path 398" class="cls-2" d="M47.385,28.075,52.334,19.5a14.017,14.017,0,0,0-7.017-1.9A13.77,13.77,0,0,0,38.3,19.5l4.949,8.576a4.2,4.2,0,0,1,2.068-.576A4.3,4.3,0,0,1,47.385,28.075Z" transform="translate(-38.3 -17.6)"/>
      </g>
    </g>
    <g id="Group_577" data-name="Group 577" transform="translate(21.424 20.542)">
      <g id="Group_576" data-name="Group 576">
        <path id="Path_399" data-name="Path 399" class="cls-2" d="M63.2,63.786l3.492,9.254a13.845,13.845,0,0,0,5.9-4.237,14.084,14.084,0,0,0,2.983-6.61l-9.8-1.593a4.2,4.2,0,0,1-.847,1.966A4.366,4.366,0,0,1,63.2,63.786Z" transform="translate(-63.2 -60.6)"/>
      </g>
    </g>
    <g id="Group_579" data-name="Group 579" transform="translate(5.898 20.169)">
      <g id="Group_578" data-name="Group 578">
        <path id="Path_400" data-name="Path 400" class="cls-2" d="M27.3,59.5l-9.9.61a13.938,13.938,0,0,0,7.695,11.695l4.441-8.881a3.933,3.933,0,0,1-1.593-1.39A4.105,4.105,0,0,1,27.3,59.5Z" transform="translate(-17.4 -59.5)"/>
      </g>
    </g>
    <g id="Group_581" data-name="Group 581" transform="translate(18.339 18.339)">
      <g id="Group_580" data-name="Group 580">
        <path id="Path_401" data-name="Path 401" class="cls-2" d="M55.761,57.422A1.661,1.661,0,1,0,54.1,55.761a1.664,1.664,0,0,0,1.661,1.661Z" transform="translate(-54.1 -54.1)"/>
      </g>
    </g>
  </g>
</svg>
