<svg xmlns="http://www.w3.org/2000/svg" viewBox="4499.516 -1388.366 12.805 19.414">
  <defs>
    <style>
      .cls-1 {
        fill: none;
        stroke: #162939;
        stroke-width: 2px;
      }
    </style>
  </defs>
  <g id="Group_886" data-name="Group 886" transform="translate(3900 -2073)">
    <path id="Path_248" data-name="Path 248" class="cls-1" d="M6454.223,9553.146l5.7,5.7,5.7-5.7" transform="translate(-5854 -8856.207)"/>
    <path id="Path_249" data-name="Path 249" class="cls-1" d="M6461.4,9537.634V9555.6" transform="translate(-5855.484 -8853)"/>
  </g>
</svg>
