<svg xmlns="http://www.w3.org/2000/svg" viewBox="10887 380 62.917 50">
  <defs>
    <style>
      .cls-1 {
        fill: #00b6d6;
      }

      .cls-2 {
        fill: #fff;
      }
    </style>
  </defs>
  <g id="Group_853" data-name="Group 853" transform="translate(10887 380)">
    <path id="Path_471" data-name="Path 471" class="cls-1" d="M24.1,32.5a3.3,3.3,0,1,0-3.3-3.3A3.321,3.321,0,0,0,24.1,32.5Zm0-4.56a1.415,1.415,0,1,1,0,2.83A1.551,1.551,0,0,1,22.687,29.2,1.284,1.284,0,0,1,24.1,27.944Z" transform="translate(11.904 14.823)"/>
    <path id="Path_472" data-name="Path 472" class="cls-1" d="M3.4,29.2a3.224,3.224,0,0,0,3.3,3.3,3.3,3.3,0,1,0,0-6.6A3.321,3.321,0,0,0,3.4,29.2Zm3.3-1.258a1.409,1.409,0,0,1,1.415,1.415A1.284,1.284,0,0,1,6.7,30.617,1.284,1.284,0,0,1,5.444,29.2,1.157,1.157,0,0,1,6.7,27.944Z" transform="translate(1.946 14.823)"/>
    <path id="Path_473" data-name="Path 473" class="cls-2" d="M62.421,20.755a.338.338,0,0,0-.314-.314L47.484.314A1.2,1.2,0,0,0,46.7,0a.578.578,0,0,0-.472.157.154.154,0,0,0-.157.157l-17.3,14.623-2.358-4.088H13.679l-.157,20.44H10.377A3.826,3.826,0,0,0,6.6,35.063v2.358H6.289A6.289,6.289,0,1,0,6.289,50h32.39a6.289,6.289,0,1,0,0-12.579H37.421V35.063a3.826,3.826,0,0,0-3.774-3.774h0l-.314-8.176L42.925,8.648,59.748,20.912,44.811,28.931a.917.917,0,1,0,.943,1.572h.157a11.465,11.465,0,0,0,6.918,2.673,8.99,8.99,0,0,0,4.245-1.1C65.094,28.145,62.579,20.755,62.421,20.755Zm-19.5,23.113a4.395,4.395,0,0,1-4.4,4.4H6.289a4.395,4.395,0,0,1-4.4-4.4,4.3,4.3,0,0,1,4.4-4.4h32.39A4.265,4.265,0,0,1,42.925,43.868ZM42.138,6.132,32.233,21.226l-2.516-4.56Zm-26.572,6.6h6.447V31.289h-6.6ZM23.9,31.289V12.736h1.415l5.975,10.692.314,7.862H23.9ZM43.868,7.075l2.987-4.4L57.233,16.824ZM56.289,30.5A7.938,7.938,0,0,1,47.8,29.56l13.208-7.075C61.164,24.214,61.006,27.987,56.289,30.5Z"/>
  </g>
</svg>
