<svg xmlns="http://www.w3.org/2000/svg" viewBox="-4391.063 4001.276 425.841 78.885">
  <defs>
    <style>
      .cls-1, .cls-3 {
        fill: #fff;
      }

      .cls-1 {
        font-size: 25px;
        font-family: SegoeUI, Segoe UI;
        letter-spacing: 0.04em;
      }

      .cls-2 {
        fill: #253747;
      }
    </style>
  </defs>
  <g id="Group_626" data-name="Group 626" transform="translate(-4432 3943)">
    <text id="Entreprenør_123" data-name="Entreprenør 123" class="cls-1" transform="translate(131.589 131.161)"><tspan x="0" y="0">Entreprenør 123</tspan></text>
    <g id="Group_525" data-name="Group 525" transform="translate(40.937 58.276)">
      <g id="Group_384" data-name="Group 384" transform="translate(91.314 13.463)">
        <path id="Path_289" data-name="Path 289" class="cls-2" d="M306.332,157.308c2.754-1.164,4.15-3.452,4.15-6.9v-.5c0-2.793-.814-4.887-2.4-6.244-1.629-1.4-4.189-2.056-7.68-2.056H285v33.511h14.971c3.723,0,6.594-.737,8.533-2.172,1.978-1.474,2.948-3.8,2.948-7.02v-.853a8.575,8.575,0,0,0-1.357-5A7.326,7.326,0,0,0,306.332,157.308ZM292.253,147.5h6.865a4.619,4.619,0,0,1,2.987.737,3.068,3.068,0,0,1,.853,2.443v.582a3.391,3.391,0,0,1-.931,2.676,4.759,4.759,0,0,1-3.258.853h-6.555V147.5Zm11.636,17.764a3.773,3.773,0,0,1-1.008,3.025,5.7,5.7,0,0,1-3.491.815h-7.1v-8.455h6.9a5.857,5.857,0,0,1,3.646.853,3.922,3.922,0,0,1,1.047,3.142Z" transform="translate(-285 -141.484)"/>
        <path id="Path_290" data-name="Path 290" class="cls-2" d="M376.61,141.5l-7.292,13.536L361.91,141.5H353.3l12.062,19.936v13.575h7.68V161.358L384.988,141.5Z" transform="translate(-326.809 -141.422)"/>
        <path id="Path_291" data-name="Path 291" class="cls-2" d="M447.761,162.322h5.275v6.128h-4.809a17.27,17.27,0,0,1-3.452-.272,4.083,4.083,0,0,1-2.172-1.164,5.271,5.271,0,0,1-1.125-2.482,20.657,20.657,0,0,1-.31-4.228v-4.422a23.048,23.048,0,0,1,.31-4.111,4.519,4.519,0,0,1,1.164-2.443,4.631,4.631,0,0,1,2.288-1.2,17.491,17.491,0,0,1,3.762-.233h11.093v-6.477c-1.008-.039-1.939-.039-2.793-.078-.853,0-1.668-.039-2.521-.039h-5.352a28.756,28.756,0,0,0-7.68.853,11.356,11.356,0,0,0-4.926,2.676,9.92,9.92,0,0,0-2.637,4.5,24.184,24.184,0,0,0-.776,6.438v4.654a25.245,25.245,0,0,0,.737,6.632,9.841,9.841,0,0,0,2.482,4.46,10.539,10.539,0,0,0,4.693,2.56,27.61,27.61,0,0,0,7.292.815h6.9a11.11,11.11,0,0,0,2.793-.31,4.034,4.034,0,0,0,1.707-.97,3.216,3.216,0,0,0,.853-1.551,8.758,8.758,0,0,0,.233-2.133V155.961H447.722v6.361Z" transform="translate(-375.658 -141.3)"/>
        <path id="Path_292" data-name="Path 292" class="cls-2" d="M570.221,141.378H541.946c-1.008-.039-6.981-.078-7.8-.078h-2.831a28.752,28.752,0,0,0-7.68.853,11.354,11.354,0,0,0-4.926,2.676,9.92,9.92,0,0,0-2.637,4.5,24.184,24.184,0,0,0-.776,6.438v4.654a25.247,25.247,0,0,0,.737,6.632,9.841,9.841,0,0,0,2.482,4.46,10.54,10.54,0,0,0,4.693,2.56,27.61,27.61,0,0,0,7.292.815h6.9a11.109,11.109,0,0,0,2.793-.31,4.034,4.034,0,0,0,1.707-.97,3.215,3.215,0,0,0,.853-1.551,8.752,8.752,0,0,0,.233-2.133V155.961H529.922v6.4H535.2v6.128h-4.809a17.272,17.272,0,0,1-3.452-.271,4.083,4.083,0,0,1-2.172-1.164,5.269,5.269,0,0,1-1.125-2.482,20.654,20.654,0,0,1-.31-4.228v-4.422a23.038,23.038,0,0,1,.31-4.111,4.519,4.519,0,0,1,1.163-2.443,4.633,4.633,0,0,1,2.288-1.2,17.631,17.631,0,0,1,3.724-.194h21.1v26.956h7.757V147.971h10.55Z" transform="translate(-425.976 -141.3)"/>
        <path id="Path_293" data-name="Path 293" class="cls-2" d="M653.678,161.862a17.349,17.349,0,0,1-.271,3.53,4.23,4.23,0,0,1-.853,2.017,2.929,2.929,0,0,1-1.629.892,11.833,11.833,0,0,1-2.56.194h-2.637c-.776,0-2.793,0-3.568-.039v6.555c.582,0-.543,0,0,.039.543,0,2.793.039,3.413.039s1.28.039,2.017.039h2.6a17.115,17.115,0,0,0,5.236-.7,8,8,0,0,0,3.491-2.172,8.866,8.866,0,0,0,1.939-3.917,25.413,25.413,0,0,0,.582-5.9V141.5h-7.757Z" transform="translate(-503.538 -141.422)"/>
        <path id="Path_294" data-name="Path 294" class="cls-2" d="M713.657,161.2H727.62v-6.516H713.657v-6.671h15.476V141.5H705.9v33.511h23.466v-6.555H713.657Z" transform="translate(-542.65 -141.422)"/>
        <path id="Path_295" data-name="Path 295" class="cls-2" d="M873.757,161.2h14v-6.516h-14v-6.671h15.476V141.5H866v33.511h23.465v-6.555H873.757Z" transform="translate(-640.654 -141.422)"/>
        <path id="Path_296" data-name="Path 296" class="cls-2" d="M1094.757,161.2h13.963v-6.516h-13.963v-6.671h15.475V141.5H1087v33.511h23.465v-6.555h-15.708Z" transform="translate(-775.938 -141.422)"/>
        <path id="Path_297" data-name="Path 297" class="cls-2" d="M800.377,162.716,785.522,141.5H779.2v33.511h7.408V153.95l14.738,21.061h6.4V141.5h-7.369Z" transform="translate(-587.52 -141.422)"/>
        <path id="Path_298" data-name="Path 298" class="cls-2" d="M959.782,158.272a7.574,7.574,0,0,0-2.637-1.9,15.869,15.869,0,0,0-4.111-1.164l-5.74-.97a6.958,6.958,0,0,1-1.745-.465,2.805,2.805,0,0,1-1.009-.621,1.927,1.927,0,0,1-.465-.931,6.792,6.792,0,0,1-.116-1.357,5.731,5.731,0,0,1,.194-1.513,2.036,2.036,0,0,1,.737-.97,3.825,3.825,0,0,1,1.474-.5,13.353,13.353,0,0,1,2.366-.155c1.319,0,8.339.271,10.782.31v-6.516c-1.4-.039-1.435-.039-2.521-.078-1.086,0-2.095-.039-3.025-.039h-5.081a23.277,23.277,0,0,0-5.9.621,10.239,10.239,0,0,0-3.918,1.862,7.307,7.307,0,0,0-2.172,2.948,11.5,11.5,0,0,0-.659,3.995v.737a14.077,14.077,0,0,0,.388,3.607,5.565,5.565,0,0,0,1.4,2.676,7.81,7.81,0,0,0,2.754,1.862,19.714,19.714,0,0,0,4.461,1.2l4.926.853a8.241,8.241,0,0,1,1.823.465,2.716,2.716,0,0,1,1.086.659,1.92,1.92,0,0,1,.5,1.008,8.259,8.259,0,0,1,.116,1.513,6.237,6.237,0,0,1-.194,1.629,1.906,1.906,0,0,1-.814,1.008,4.752,4.752,0,0,1-1.59.543,15.536,15.536,0,0,1-2.56.155c-1.474,0-4.809-.116-4.809-.116l-7.525-.233v6.555c1.552.039,2.909.039,4.111.078,1.2,0,2.288.039,3.258.039h4.848a28.236,28.236,0,0,0,6.244-.582,10.87,10.87,0,0,0,4.111-1.745,6.359,6.359,0,0,0,2.211-3.025,13.128,13.128,0,0,0,.659-4.344v-.7a14.477,14.477,0,0,0-.427-3.646A6.905,6.905,0,0,0,959.782,158.272Z" transform="translate(-683.627 -141.361)"/>
        <path id="Path_299" data-name="Path 299" class="cls-2" d="M1005.7,148.016h9.968v26.995h7.757V148.016h10.084V141.5H1005.7Z" transform="translate(-726.171 -141.422)"/>
      </g>
      <path id="Path_300" data-name="Path 300" class="cls-3" d="M40.93,13.158H4.623V0H3.686A3.684,3.684,0,0,0,0,3.686H0V41.092H40.833a2.33,2.33,0,0,1,0,4.656H0V73.68H40.93a30.261,30.261,0,0,0,0-60.522Z" transform="translate(0)"/>
      <g id="Group_387" data-name="Group 387" transform="translate(91.314 13.462)">
        <path id="Path_289-2" data-name="Path 289" class="cls-3" d="M306.332,157.308c2.754-1.164,4.15-3.452,4.15-6.9v-.5c0-2.793-.814-4.887-2.4-6.244-1.629-1.4-4.189-2.056-7.68-2.056H285v33.511h14.971c3.723,0,6.594-.737,8.533-2.172,1.978-1.474,2.948-3.8,2.948-7.02v-.853a8.575,8.575,0,0,0-1.357-5A7.326,7.326,0,0,0,306.332,157.308ZM292.253,147.5h6.865a4.619,4.619,0,0,1,2.987.737,3.068,3.068,0,0,1,.853,2.443v.582a3.391,3.391,0,0,1-.931,2.676,4.759,4.759,0,0,1-3.258.853h-6.555V147.5Zm11.636,17.764a3.773,3.773,0,0,1-1.008,3.025,5.7,5.7,0,0,1-3.491.815h-7.1v-8.455h6.9a5.857,5.857,0,0,1,3.646.853,3.922,3.922,0,0,1,1.047,3.142Z" transform="translate(-285 -141.484)"/>
        <path id="Path_290-2" data-name="Path 290" class="cls-3" d="M376.61,141.5l-7.292,13.536L361.91,141.5H353.3l12.062,19.936v13.575h7.68V161.358L384.988,141.5Z" transform="translate(-326.809 -141.422)"/>
        <path id="Path_291-2" data-name="Path 291" class="cls-3" d="M447.761,162.322h5.275v6.128h-4.809a17.27,17.27,0,0,1-3.452-.272,4.083,4.083,0,0,1-2.172-1.164,5.271,5.271,0,0,1-1.125-2.482,20.657,20.657,0,0,1-.31-4.228v-4.422a23.048,23.048,0,0,1,.31-4.111,4.519,4.519,0,0,1,1.164-2.443,4.631,4.631,0,0,1,2.288-1.2,17.491,17.491,0,0,1,3.762-.233h11.093v-6.477c-1.008-.039-1.939-.039-2.793-.078-.853,0-1.668-.039-2.521-.039h-5.352a28.756,28.756,0,0,0-7.68.853,11.356,11.356,0,0,0-4.926,2.676,9.92,9.92,0,0,0-2.637,4.5,24.184,24.184,0,0,0-.776,6.438v4.654a25.245,25.245,0,0,0,.737,6.632,9.841,9.841,0,0,0,2.482,4.46,10.539,10.539,0,0,0,4.693,2.56,27.61,27.61,0,0,0,7.292.815h6.9a11.11,11.11,0,0,0,2.793-.31,4.034,4.034,0,0,0,1.707-.97,3.216,3.216,0,0,0,.853-1.551,8.758,8.758,0,0,0,.233-2.133V155.961H447.722v6.361Z" transform="translate(-375.658 -141.3)"/>
        <path id="Path_292-2" data-name="Path 292" class="cls-3" d="M570.221,141.378H541.946c-1.008-.039-6.981-.078-7.8-.078h-2.831a28.752,28.752,0,0,0-7.68.853,11.354,11.354,0,0,0-4.926,2.676,9.92,9.92,0,0,0-2.637,4.5,24.184,24.184,0,0,0-.776,6.438v4.654a25.247,25.247,0,0,0,.737,6.632,9.841,9.841,0,0,0,2.482,4.46,10.54,10.54,0,0,0,4.693,2.56,27.61,27.61,0,0,0,7.292.815h6.9a11.109,11.109,0,0,0,2.793-.31,4.034,4.034,0,0,0,1.707-.97,3.215,3.215,0,0,0,.853-1.551,8.752,8.752,0,0,0,.233-2.133V155.961H529.922v6.4H535.2v6.128h-4.809a17.272,17.272,0,0,1-3.452-.271,4.083,4.083,0,0,1-2.172-1.164,5.269,5.269,0,0,1-1.125-2.482,20.654,20.654,0,0,1-.31-4.228v-4.422a23.038,23.038,0,0,1,.31-4.111,4.519,4.519,0,0,1,1.163-2.443,4.633,4.633,0,0,1,2.288-1.2,17.631,17.631,0,0,1,3.724-.194h21.1v26.956h7.757V147.971h10.55Z" transform="translate(-425.976 -141.3)"/>
        <path id="Path_293-2" data-name="Path 293" class="cls-3" d="M653.678,161.862a17.349,17.349,0,0,1-.271,3.53,4.23,4.23,0,0,1-.853,2.017,2.929,2.929,0,0,1-1.629.892,11.833,11.833,0,0,1-2.56.194h-2.637c-.776,0-2.793,0-3.568-.039v6.555c.582,0-.543,0,0,.039.543,0,2.793.039,3.413.039s1.28.039,2.017.039h2.6a17.115,17.115,0,0,0,5.236-.7,8,8,0,0,0,3.491-2.172,8.866,8.866,0,0,0,1.939-3.917,25.413,25.413,0,0,0,.582-5.9V141.5h-7.757Z" transform="translate(-503.538 -141.422)"/>
        <path id="Path_294-2" data-name="Path 294" class="cls-3" d="M713.657,161.2H727.62v-6.516H713.657v-6.671h15.476V141.5H705.9v33.511h23.466v-6.555H713.657Z" transform="translate(-542.65 -141.422)"/>
        <path id="Path_295-2" data-name="Path 295" class="cls-3" d="M873.757,161.2h14v-6.516h-14v-6.671h15.476V141.5H866v33.511h23.465v-6.555H873.757Z" transform="translate(-640.654 -141.422)"/>
        <path id="Path_296-2" data-name="Path 296" class="cls-3" d="M1094.757,161.2h13.963v-6.516h-13.963v-6.671h15.475V141.5H1087v33.511h23.465v-6.555h-15.708Z" transform="translate(-775.938 -141.422)"/>
        <path id="Path_297-2" data-name="Path 297" class="cls-3" d="M800.377,162.716,785.522,141.5H779.2v33.511h7.408V153.95l14.738,21.061h6.4V141.5h-7.369Z" transform="translate(-587.52 -141.422)"/>
        <path id="Path_298-2" data-name="Path 298" class="cls-3" d="M959.782,158.272a7.574,7.574,0,0,0-2.637-1.9,15.869,15.869,0,0,0-4.111-1.164l-5.74-.97a6.958,6.958,0,0,1-1.745-.465,2.805,2.805,0,0,1-1.009-.621,1.927,1.927,0,0,1-.465-.931,6.792,6.792,0,0,1-.116-1.357,5.731,5.731,0,0,1,.194-1.513,2.036,2.036,0,0,1,.737-.97,3.825,3.825,0,0,1,1.474-.5,13.353,13.353,0,0,1,2.366-.155c1.319,0,8.339.271,10.782.31v-6.516c-1.4-.039-1.435-.039-2.521-.078-1.086,0-2.095-.039-3.025-.039h-5.081a23.277,23.277,0,0,0-5.9.621,10.239,10.239,0,0,0-3.918,1.862,7.307,7.307,0,0,0-2.172,2.948,11.5,11.5,0,0,0-.659,3.995v.737a14.077,14.077,0,0,0,.388,3.607,5.565,5.565,0,0,0,1.4,2.676,7.81,7.81,0,0,0,2.754,1.862,19.714,19.714,0,0,0,4.461,1.2l4.926.853a8.241,8.241,0,0,1,1.823.465,2.716,2.716,0,0,1,1.086.659,1.92,1.92,0,0,1,.5,1.008,8.259,8.259,0,0,1,.116,1.513,6.237,6.237,0,0,1-.194,1.629,1.906,1.906,0,0,1-.814,1.008,4.752,4.752,0,0,1-1.59.543,15.536,15.536,0,0,1-2.56.155c-1.474,0-4.809-.116-4.809-.116l-7.525-.233v6.555c1.552.039,2.909.039,4.111.078,1.2,0,2.288.039,3.258.039h4.848a28.236,28.236,0,0,0,6.244-.582,10.87,10.87,0,0,0,4.111-1.745,6.359,6.359,0,0,0,2.211-3.025,13.128,13.128,0,0,0,.659-4.344v-.7a14.477,14.477,0,0,0-.427-3.646A6.905,6.905,0,0,0,959.782,158.272Z" transform="translate(-683.627 -141.361)"/>
        <path id="Path_299-2" data-name="Path 299" class="cls-3" d="M1005.7,148.016h9.968v26.995h7.757V148.016h10.084V141.5H1005.7Z" transform="translate(-726.171 -141.422)"/>
      </g>
    </g>
  </g>
</svg>
