<svg xmlns="http://www.w3.org/2000/svg" viewBox="-1344.359 10999.3 208.109 41.386">
  <defs>
    <style>
      .cls-1 {
        fill: #fff;
      }
    </style>
  </defs>
  <g id="Group_625" data-name="Group 625" transform="translate(-1344.359 10999.3)">
    <g id="Group_247" data-name="Group 247" transform="translate(51.687 25.626)">
      <path id="Path_211" data-name="Path 211" class="cls-1" d="M294.975,148.945a3.162,3.162,0,0,0,1.94-3.228v-.236a3.642,3.642,0,0,0-1.124-2.92,5.45,5.45,0,0,0-3.591-.961H285v15.669h7a6.675,6.675,0,0,0,3.99-1.016,3.812,3.812,0,0,0,1.378-3.283v-.4a4.009,4.009,0,0,0-.635-2.34A3.426,3.426,0,0,0,294.975,148.945Zm-6.583-4.588h3.21a2.16,2.16,0,0,1,1.4.345,1.435,1.435,0,0,1,.4,1.143v.272a1.586,1.586,0,0,1-.435,1.251,2.225,2.225,0,0,1-1.523.4h-3.065v-3.41Zm5.441,8.306a1.764,1.764,0,0,1-.472,1.415,2.664,2.664,0,0,1-1.632.381H288.41V150.5h3.228a2.739,2.739,0,0,1,1.7.4,1.834,1.834,0,0,1,.49,1.469Z" transform="translate(-285 -141.546)"/>
      <path id="Path_212" data-name="Path 212" class="cls-1" d="M364.2,141.5l-3.41,6.329-3.464-6.329H353.3l5.64,9.322v6.348h3.591v-6.384l5.586-9.286Z" transform="translate(-340.913 -141.464)"/>
      <path id="Path_213" data-name="Path 213" class="cls-1" d="M439.955,151.13h2.466V154h-2.249a8.074,8.074,0,0,1-1.614-.127,1.91,1.91,0,0,1-1.016-.544,2.465,2.465,0,0,1-.526-1.161,9.662,9.662,0,0,1-.145-1.977v-2.067a10.778,10.778,0,0,1,.145-1.922,2.113,2.113,0,0,1,.544-1.143,2.166,2.166,0,0,1,1.07-.562,8.178,8.178,0,0,1,1.759-.109h5.187v-3.029c-.472-.018-.907-.018-1.306-.036-.4,0-.78-.018-1.179-.018h-2.5a13.444,13.444,0,0,0-3.591.4,5.309,5.309,0,0,0-2.3,1.251,4.638,4.638,0,0,0-1.233,2.1,11.31,11.31,0,0,0-.363,3.011v2.176a11.8,11.8,0,0,0,.345,3.1,4.6,4.6,0,0,0,1.161,2.086,4.928,4.928,0,0,0,2.194,1.2,12.909,12.909,0,0,0,3.41.381h3.228a5.2,5.2,0,0,0,1.306-.145,1.886,1.886,0,0,0,.8-.453,1.5,1.5,0,0,0,.4-.725,4.1,4.1,0,0,0,.109-1v-6.529h-6.112v2.974Z" transform="translate(-406.241 -141.3)"/>
      <path id="Path_214" data-name="Path 214" class="cls-1" d="M540.98,141.336H527.759c-.472-.018-3.264-.036-3.645-.036H522.79a13.443,13.443,0,0,0-3.591.4,5.31,5.31,0,0,0-2.3,1.251,4.639,4.639,0,0,0-1.233,2.1,11.312,11.312,0,0,0-.363,3.011v2.176a11.8,11.8,0,0,0,.345,3.1,4.6,4.6,0,0,0,1.161,2.086,4.928,4.928,0,0,0,2.194,1.2,12.91,12.91,0,0,0,3.41.381h3.228a5.2,5.2,0,0,0,1.306-.145,1.886,1.886,0,0,0,.8-.453,1.5,1.5,0,0,0,.4-.725,4.094,4.094,0,0,0,.109-1v-6.529h-6.112v2.992H524.6v2.865h-2.249a8.072,8.072,0,0,1-1.614-.127,1.909,1.909,0,0,1-1.016-.544,2.464,2.464,0,0,1-.526-1.161,9.654,9.654,0,0,1-.145-1.977v-2.067a10.774,10.774,0,0,1,.145-1.922,2.113,2.113,0,0,1,.544-1.143,2.165,2.165,0,0,1,1.07-.562,8.24,8.24,0,0,1,1.741-.091h9.866v12.6h3.627v-12.6h4.933Z" transform="translate(-473.533 -141.3)"/>
      <path id="Path_215" data-name="Path 215" class="cls-1" d="M647.464,151.021a8.114,8.114,0,0,1-.127,1.65,1.978,1.978,0,0,1-.4.943,1.369,1.369,0,0,1-.762.417,5.531,5.531,0,0,1-1.2.091h-1.233c-.363,0-1.306,0-1.669-.018v3.065c.272,0-.254,0,0,.018.254,0,1.306.018,1.6.018s.6.018.943.018h1.215a8,8,0,0,0,2.448-.326,3.743,3.743,0,0,0,1.632-1.016,4.145,4.145,0,0,0,.907-1.832,11.883,11.883,0,0,0,.272-2.757V141.5h-3.627Z" transform="translate(-577.26 -141.464)"/>
      <path id="Path_216" data-name="Path 216" class="cls-1" d="M709.527,150.713h6.529v-3.047h-6.529v-3.119h7.236V141.5H705.9v15.669h10.972V154.1h-7.345Z" transform="translate(-629.566 -141.464)"/>
      <path id="Path_217" data-name="Path 217" class="cls-1" d="M869.627,150.713h6.547v-3.047h-6.547v-3.119h7.236V141.5H866v15.669h10.972V154.1h-7.345Z" transform="translate(-760.63 -141.464)"/>
      <path id="Path_218" data-name="Path 218" class="cls-1" d="M1090.627,150.713h6.529v-3.047h-6.529v-3.119h7.236V141.5H1087v15.669h10.972V154.1h-7.345Z" transform="translate(-941.55 -141.464)"/>
      <path id="Path_219" data-name="Path 219" class="cls-1" d="M789.1,151.42l-6.946-9.92H779.2v15.669h3.464v-9.848l6.892,9.848h2.992V141.5H789.1Z" transform="translate(-689.572 -141.464)"/>
      <path id="Path_220" data-name="Path 220" class="cls-1" d="M947.227,149.289a3.541,3.541,0,0,0-1.233-.889,7.42,7.42,0,0,0-1.922-.544l-2.684-.453a3.251,3.251,0,0,1-.816-.218,1.309,1.309,0,0,1-.472-.29.9.9,0,0,1-.218-.435,3.183,3.183,0,0,1-.054-.635,2.68,2.68,0,0,1,.091-.707.953.953,0,0,1,.345-.453,1.787,1.787,0,0,1,.689-.236,6.244,6.244,0,0,1,1.106-.073c.617,0,3.9.127,5.042.145v-3.047c-.653-.018-.671-.018-1.179-.036-.508,0-.979-.018-1.415-.018H942.13a10.885,10.885,0,0,0-2.757.29,4.786,4.786,0,0,0-1.832.871,3.417,3.417,0,0,0-1.016,1.378,5.374,5.374,0,0,0-.308,1.868v.345a6.573,6.573,0,0,0,.181,1.687,2.6,2.6,0,0,0,.653,1.251,3.651,3.651,0,0,0,1.288.871,9.219,9.219,0,0,0,2.086.562l2.3.4a3.853,3.853,0,0,1,.852.218,1.27,1.27,0,0,1,.508.308.9.9,0,0,1,.236.472,3.867,3.867,0,0,1,.054.707,2.915,2.915,0,0,1-.091.762.891.891,0,0,1-.381.472,2.221,2.221,0,0,1-.744.254,7.267,7.267,0,0,1-1.2.073c-.689,0-2.249-.054-2.249-.054l-3.518-.109v3.065c.725.018,1.36.018,1.922.036.562,0,1.07.018,1.523.018h2.267a13.2,13.2,0,0,0,2.92-.272,5.085,5.085,0,0,0,1.922-.816,2.973,2.973,0,0,0,1.034-1.415,6.136,6.136,0,0,0,.308-2.031v-.326a6.769,6.769,0,0,0-.2-1.7A3.228,3.228,0,0,0,947.227,149.289Z" transform="translate(-818.099 -141.382)"/>
      <path id="Path_221" data-name="Path 221" class="cls-1" d="M1005.7,144.547h4.661v12.623h3.627V144.547h4.715V141.5h-13Z" transform="translate(-874.995 -141.464)"/>
    </g>
    <path id="Path_222" data-name="Path 222" class="cls-1" d="M22.96,7.381H2.593V0H2.067A2.067,2.067,0,0,0,0,2.067H0V23.051H22.906a1.307,1.307,0,0,1,0,2.612H0V41.332H22.96a16.975,16.975,0,0,0,0-33.95Z"/>
  </g>
</svg>
