<svg xmlns="http://www.w3.org/2000/svg" viewBox="12524.343 624.343 11.314 11.314">
  <defs>
    <style>
      .cls-1 {
        fill: #162939;
      }
    </style>
  </defs>
  <path id="Path_484" data-name="Path 484" class="cls-1" d="M8,0V8H0Z" transform="translate(12530 624.343) rotate(45)"/>
</svg>
