<svg xmlns="http://www.w3.org/2000/svg" viewBox="-663.847 1511.014 9.674 9.674">
  <path id="Path_360" data-name="Path 360" class="cls-1" d="M5.5.5,7.48,7.2.5,5.5Z" transform="translate(-664.554 1515.949) rotate(-45)"/>
</svg>
