<?xml version="1.0" encoding="utf-8"?>
<!-- Generator: Adobe Illustrator 22.0.1, SVG Export Plug-In . SVG Version: 6.00 Build 0)  -->
<svg version="1.1" xmlns="http://www.w3.org/2000/svg" xmlns:xlink="http://www.w3.org/1999/xlink" x="0px" y="0px"
	 viewBox="0 0 32 65.5" style="enable-background:new 0 0 32 65.5;" xml:space="preserve">
<style type="text/css">
	.st0{fill:#2F292B;}
</style>
<g id="Merkenavn">
</g>
<g id="Forfatter_x2F_kunstner">
</g>
<g id="Farge">
</g>
<g id="Høyde">
	<path class="st0" d="M25.9,0.6H6.1c-0.6,0-1,0.4-1,1v62.2c0,0.6,0.4,1,1,1h19.8c0.6,0,1-0.4,1-1V1.6C26.9,1.1,26.5,0.6,25.9,0.6z
		 M24.9,62.9H7.1V52.1h7.5c0.6,0,1-0.4,1-1s-0.4-1-1-1H7.1v-5.1h6.1c0.6,0,1-0.4,1-1s-0.4-1-1-1H7.1v-5.8h8.2c0.6,0,1-0.4,1-1
		s-0.4-1-1-1H7.1v-5.1h5.4c0.6,0,1-0.4,1-1s-0.4-1-1-1H7.1v-5.8h7.5c0.6,0,1-0.4,1-1s-0.4-1-1-1H7.1v-5.1h6.1c0.6,0,1-0.4,1-1
		s-0.4-1-1-1H7.1V2.6h17.8V62.9z"/>
</g>
<g id="Vidde">
</g>
<g id="Bredde">
</g>
<g id="Lengde">
</g>
<g id="Materiale">
</g>
<g id="Vekt">
</g>
<g id="Dybde">
</g>
<g id="Kvalitet">
</g>
<g id="Kolleksjon">
</g>
<g id="Butikk">
</g>
</svg>
