<svg xmlns="http://www.w3.org/2000/svg" viewBox="-18621.5 6898.5 21 19.095">
  <defs>
    <style>
      .cls-1, .cls-2 {
        fill: none;
        stroke: #000;
        stroke-miterlimit: 10;
      }

      .cls-1 {
        stroke-linecap: round;
        stroke-linejoin: round;
      }
    </style>
  </defs>
  <g id="Group_426" data-name="Group 426" transform="translate(-18622 6898)">
    <path id="Path_573" data-name="Path 573" class="cls-1" d="M1,1H9.571V4.857L21,4.81V19.1H5.762c0-2.714,3.81-2.857,3.81-2.857H1Z"/>
    <line id="Line_62" data-name="Line 62" class="cls-1" y2="11.381" transform="translate(9.571 4.857)"/>
    <path id="Path_574" data-name="Path 574" class="cls-2" d="M12.429,33ZM11,33v2.857" transform="translate(-5.238 -16.762)"/>
  </g>
</svg>
