<svg xmlns="http://www.w3.org/2000/svg" viewBox="-18866.707 6974.294 21.414 21.414">
  <defs>
    <style>
      .cls-1 {
        fill: none;
        stroke: #000;
        stroke-linecap: round;
        stroke-linejoin: round;
        stroke-miterlimit: 10;
      }
    </style>
  </defs>
  <g id="Group_427" data-name="Group 427" transform="translate(-18867.008 6973.992)">
    <rect id="Rectangle_404" data-name="Rectangle 404" class="cls-1" width="21.455" height="6.83" transform="translate(1.009 16.18) rotate(-45)"/>
    <line id="Line_63" data-name="Line 63" class="cls-1" x2="2.07" y2="2.07" transform="translate(4.11 13.079)"/>
    <line id="Line_64" data-name="Line 64" class="cls-1" x2="1.725" y2="1.725" transform="translate(5.835 11.354)"/>
    <line id="Line_65" data-name="Line 65" class="cls-1" x2="2.242" y2="2.242" transform="translate(7.732 9.457)"/>
    <line id="Line_66" data-name="Line 66" class="cls-1" x2="1.552" y2="1.552" transform="translate(9.456 7.732)"/>
    <line id="Line_67" data-name="Line 67" class="cls-1" x2="2.07" y2="2.07" transform="translate(11.354 5.835)"/>
    <line id="Line_68" data-name="Line 68" class="cls-1" x2="1.725" y2="1.725" transform="translate(13.078 4.11)"/>
  </g>
</svg>
