<?xml version="1.0" encoding="utf-8"?>
<!-- Generator: Adobe Illustrator 22.0.1, SVG Export Plug-In . SVG Version: 6.00 Build 0)  -->
<svg version="1.1" id="user_x5F_icon" xmlns="http://www.w3.org/2000/svg" xmlns:xlink="http://www.w3.org/1999/xlink" x="0px"
	 y="0px" viewBox="0 0 32.3 36.8" style="enable-background:new 0 0 32.3 36.8;" xml:space="preserve">
<style type="text/css">
	.st0{fill:#2F292B;}
</style>
<g>
	<g>
		<path class="st0" d="M15.6,20.4c-5.4,0-9.8-4.4-9.8-9.8s4.4-9.8,9.8-9.8s9.8,4.4,9.8,9.8S21,20.4,15.6,20.4z M15.6,2.7
			c-4.3,0-7.8,3.5-7.8,7.8s3.5,7.8,7.8,7.8c4.3,0,7.8-3.5,7.8-7.8S19.9,2.7,15.6,2.7z"/>
	</g>
	<g>
		<path class="st0" d="M30.7,36h-2c0-4.6-0.8-7.6-2.3-9.1c-1.8-1.7-4.7-1.6-8.1-1.5c-1.8,0.1-3.7,0.1-5.4,0
			c-3.4-0.1-6.2-0.2-7.9,1.5c-1.6,1.5-2.3,4.5-2.3,9.2h-2c0-5.3,0.9-8.7,2.9-10.6c2.3-2.3,5.7-2.1,9.3-2c1.7,0.1,3.5,0.1,5.3,0
			c3.7-0.1,7.2-0.2,9.6,2.1C29.8,27.4,30.7,30.8,30.7,36z"/>
	</g>
</g>
<g>
	<g>
		<path class="st0" d="M15.6,20.4c-5.4,0-9.8-4.4-9.8-9.8s4.4-9.8,9.8-9.8s9.8,4.4,9.8,9.8S21,20.4,15.6,20.4z M15.6,2.7
			c-4.3,0-7.8,3.5-7.8,7.8s3.5,7.8,7.8,7.8c4.3,0,7.8-3.5,7.8-7.8S19.9,2.7,15.6,2.7z"/>
	</g>
	<g>
		<path class="st0" d="M30.7,36h-2c0-4.6-0.8-7.6-2.3-9.1c-1.8-1.7-4.7-1.6-8.1-1.5c-1.8,0.1-3.7,0.1-5.4,0
			c-3.4-0.1-6.2-0.2-7.9,1.5c-1.6,1.5-2.3,4.5-2.3,9.2h-2c0-5.3,0.9-8.7,2.9-10.6c2.3-2.3,5.7-2.1,9.3-2c1.7,0.1,3.5,0.1,5.3,0
			c3.7-0.1,7.2-0.2,9.6,2.1C29.8,27.4,30.7,30.8,30.7,36z"/>
	</g>
</g>
</svg>
