<svg xmlns="http://www.w3.org/2000/svg" viewBox="12492.839 345.839 24.322 24.322">
  <defs>
    <style>
      .cls-1, .cls-3 {
        fill: none;
      }

      .cls-1 {
        stroke: #fff;
        stroke-width: 2px;
      }

      .cls-2 {
        stroke: none;
      }
    </style>
  </defs>
  <g id="Group_1041" data-name="Group 1041" transform="translate(11218.839 -258.161)">
    <g id="Group_1039" data-name="Group 1039" transform="translate(1281.933 616.161) rotate(-90)">
      <path id="Path_249" data-name="Path 249" class="cls-1" d="M0,0V8.326" transform="translate(0.031)"/>
    </g>
    <g id="Ellipse_59" data-name="Ellipse 59" class="cls-1" transform="translate(1274 604)">
      <circle class="cls-2" cx="12.161" cy="12.161" r="12.161"/>
      <circle class="cls-3" cx="12.161" cy="12.161" r="11.161"/>
    </g>
    <g id="Group_1042" data-name="Group 1042" transform="translate(1286.065 611.967)">
      <path id="Path_249-2" data-name="Path 249" class="cls-1" d="M0,0V8.326" transform="translate(0.031)"/>
    </g>
  </g>
</svg>
