<svg xmlns="http://www.w3.org/2000/svg" viewBox="-3909.943 4722.092 24.105 15.774">
  <defs>
    <style>
      .cls-1 {
        fill: none;
        stroke: #fff;
        stroke-width: 2px;
      }
    </style>
  </defs>
  <g id="Group_976" data-name="Group 976" transform="translate(-4594.577 5337.382) rotate(-90)">
    <path id="Path_248" data-name="Path 248" class="cls-1" d="M6454.223,9553.146l7.18,7.18,7.18-7.18" transform="translate(-5854 -8853)"/>
    <path id="Path_249" data-name="Path 249" class="cls-1" d="M6461.4,9537.634v22.648" transform="translate(-5854 -8853)"/>
  </g>
</svg>
