<svg xmlns="http://www.w3.org/2000/svg" viewBox="17366 466 44.543 50">
  <defs>
    <style>
      .cls-1 {
        fill: #00b6d6;
      }

      .cls-2 {
        fill: none;
      }

      .cls-3 {
        fill: #fff;
      }
    </style>
  </defs>
  <g id="Group_1117" data-name="Group 1117" transform="translate(17366 466)">
    <g id="Group_527" data-name="Group 527" transform="translate(4.851 16.677)">
      <path id="Path_353" data-name="Path 353" class="cls-1" d="M24.49,56.819H16.91a.91.91,0,0,1,0-1.819h7.58a.91.91,0,0,1,0,1.819Z" transform="translate(-16 -55)"/>
    </g>
    <g id="Group_528" data-name="Group 528" transform="translate(4.851 21.528)">
      <path id="Path_354" data-name="Path 354" class="cls-1" d="M26.916,72.819H16.91a.91.91,0,0,1,0-1.819H26.916a.91.91,0,0,1,0,1.819Z" transform="translate(-16 -71)"/>
    </g>
    <g id="Group_529" data-name="Group 529" transform="translate(4.851 26.683)">
      <path id="Path_355" data-name="Path 355" class="cls-1" d="M30.494,89.819H16.91a.91.91,0,1,1,0-1.819H30.494a.91.91,0,1,1,0,1.819Z" transform="translate(-16 -88)"/>
    </g>
    <g id="Group_530" data-name="Group 530" transform="translate(4.851 31.534)">
      <path id="Path_356" data-name="Path 356" class="cls-1" d="M27.825,105.819H16.91a.91.91,0,1,1,0-1.819H27.825a.91.91,0,1,1,0,1.819Z" transform="translate(-16 -104)"/>
    </g>
    <path id="Path_357" data-name="Path 357" class="cls-2" d="M20.554,40.577A14.554,14.554,0,0,1,20.8,38H6.606A.608.608,0,0,0,6,38.606V68.928a.608.608,0,0,0,.606.606H30.864a.608.608,0,0,0,.606-.606V54.313A14.138,14.138,0,0,1,20.554,40.577Z" transform="translate(-4.181 -26.478)"/>
    <path id="Path_358" data-name="Path 358" class="cls-3" d="M43.3,8.217a.921.921,0,0,0-1.213-.455.66.66,0,0,0-.243.152.932.932,0,0,0-.212,1.031,12.259,12.259,0,0,1-7.4,16.8,11.381,11.381,0,0,1-1.819.424,13.589,13.589,0,0,1-1.941.152,10.313,10.313,0,0,1-1.364-.091A12.2,12.2,0,0,1,18.193,14.1a11.987,11.987,0,0,1,.273-2.577A9.026,9.026,0,0,1,19.012,9.7,12.284,12.284,0,0,1,30.473,1.819a12.456,12.456,0,0,1,5.822,1.455.914.914,0,0,0,1.061-.152,1.682,1.682,0,0,0,.182-.243.93.93,0,0,0-.364-1.243A14.682,14.682,0,0,0,30.473,0a14.108,14.108,0,0,0-13.4,9.7H2.426A2.433,2.433,0,0,0,0,12.129V42.45a2.433,2.433,0,0,0,2.426,2.426H26.683a2.433,2.433,0,0,0,2.426-2.426V28.138c.455.03.91.061,1.364.061a13.589,13.589,0,0,0,1.941-.152V47.665a.511.511,0,0,1-.515.515H8.945a.511.511,0,0,1-.515-.515v-.758H6.61v.758A2.336,2.336,0,0,0,8.945,50H31.868A2.336,2.336,0,0,0,34.2,47.665V27.653a14.133,14.133,0,0,0,10.34-13.584A13.455,13.455,0,0,0,43.3,8.217ZM27.289,42.45a.608.608,0,0,1-.606.606H2.426a.608.608,0,0,1-.606-.606V12.129a.608.608,0,0,1,.606-.606h14.19a14.554,14.554,0,0,0-.243,2.577A14.138,14.138,0,0,0,27.289,27.835Z"/>
    <g id="Group_531" data-name="Group 531" transform="translate(22.65 4.851)">
      <path id="Path_359" data-name="Path 359" class="cls-1" d="M74.7,22.034a21.472,21.472,0,0,1,7.641,8.824A46.879,46.879,0,0,1,92.772,16s-6.822,2.82-10.855,8.429C81.916,24.429,76.7,21.609,74.7,22.034Z" transform="translate(-74.7 -16)"/>
    </g>
  </g>
</svg>
