<svg xmlns="http://www.w3.org/2000/svg" viewBox="-3298 9466 115.813 130">
  <defs>
    <style>
      .cls-1 {
        fill: #00b6d6;
      }

      .cls-2 {
        fill: none;
      }

      .cls-3 {
        fill: #263746;
      }
    </style>
  </defs>
  <g id="Group_684" data-name="Group 684" transform="translate(-3298 9466)">
    <g id="Group_679" data-name="Group 679" transform="translate(12.614 43.36)">
      <path id="Path_429" data-name="Path 429" class="cls-1" d="M38.074,59.73H18.365a2.365,2.365,0,1,1,0-4.73H38.074a2.365,2.365,0,1,1,0,4.73Z" transform="translate(-16 -55)"/>
    </g>
    <g id="Group_680" data-name="Group 680" transform="translate(12.614 55.973)">
      <path id="Path_430" data-name="Path 430" class="cls-1" d="M44.381,75.73H18.365a2.365,2.365,0,1,1,0-4.73H44.381a2.365,2.365,0,0,1,0,4.73Z" transform="translate(-16 -71)"/>
    </g>
    <g id="Group_681" data-name="Group 681" transform="translate(12.614 69.375)">
      <path id="Path_431" data-name="Path 431" class="cls-1" d="M53.683,92.73H18.365a2.365,2.365,0,1,1,0-4.73H53.683a2.365,2.365,0,1,1,0,4.73Z" transform="translate(-16 -88)"/>
    </g>
    <g id="Group_682" data-name="Group 682" transform="translate(12.614 81.989)">
      <path id="Path_432" data-name="Path 432" class="cls-1" d="M46.746,108.73H18.365a2.365,2.365,0,1,1,0-4.73H46.746a2.365,2.365,0,1,1,0,4.73Z" transform="translate(-16 -104)"/>
    </g>
    <path id="Path_433" data-name="Path 433" class="cls-2" d="M43.841,44.7a37.841,37.841,0,0,1,.631-6.7H7.577A1.581,1.581,0,0,0,6,39.577v78.836a1.581,1.581,0,0,0,1.577,1.577H70.645a1.581,1.581,0,0,0,1.577-1.577v-38A36.758,36.758,0,0,1,43.841,44.7Z" transform="translate(-1.27 -8.042)"/>
    <path id="Path_434" data-name="Path 434" class="cls-3" d="M112.577,21.364a2.4,2.4,0,0,0-3.153-1.183,1.717,1.717,0,0,0-.631.394,2.423,2.423,0,0,0-.552,2.68A31.873,31.873,0,0,1,89.005,66.931a29.592,29.592,0,0,1-4.73,1.1,35.331,35.331,0,0,1-5.045.394,26.814,26.814,0,0,1-3.548-.237A31.719,31.719,0,0,1,47.3,36.659a31.167,31.167,0,0,1,.71-6.7,23.467,23.467,0,0,1,1.419-4.73,31.938,31.938,0,0,1,29.8-20.5A32.385,32.385,0,0,1,94.366,8.514a2.376,2.376,0,0,0,2.759-.394,4.373,4.373,0,0,0,.473-.631,2.419,2.419,0,0,0-.946-3.232A38.172,38.172,0,0,0,79.23,0,36.68,36.68,0,0,0,44.384,25.227H6.307A6.325,6.325,0,0,0,0,31.534V110.37a6.325,6.325,0,0,0,6.307,6.307H69.375a6.325,6.325,0,0,0,6.307-6.307V73.159c1.183.079,2.365.158,3.548.158a35.332,35.332,0,0,0,5.045-.394V123.93a1.329,1.329,0,0,1-1.34,1.34H23.257a1.329,1.329,0,0,1-1.34-1.34v-1.971h-4.73v1.971a6.073,6.073,0,0,0,6.07,6.07h59.6a6.073,6.073,0,0,0,6.07-6.07V71.9A36.747,36.747,0,0,0,115.81,36.58,34.983,34.983,0,0,0,112.577,21.364ZM70.952,110.37a1.581,1.581,0,0,1-1.577,1.577H6.307A1.581,1.581,0,0,1,4.73,110.37V31.534a1.581,1.581,0,0,1,1.577-1.577H43.2a37.841,37.841,0,0,0-.631,6.7A36.758,36.758,0,0,0,70.952,72.371Z"/>
    <g id="Group_683" data-name="Group 683" transform="translate(58.89 12.614)">
      <path id="Path_435" data-name="Path 435" class="cls-1" d="M74.7,31.688A55.828,55.828,0,0,1,94.567,54.629,121.886,121.886,0,0,1,121.686,16s-17.738,7.332-28.223,21.916C93.463,37.916,79.9,30.585,74.7,31.688Z" transform="translate(-74.7 -16)"/>
    </g>
  </g>
</svg>
