<svg xmlns="http://www.w3.org/2000/svg" viewBox="10263.052 3776.244 28.919 28.919">
  <defs>
    <style>
      .cls-1 {
        fill: #263746;
      }
    </style>
  </defs>
  <path id="Path_474" data-name="Path 474" class="cls-1" d="M41.628,12.485,38.262,7a1.134,1.134,0,0,0-1-.5,1.539,1.539,0,0,0-1,.5L33.025,12.36v.125a.75.75,0,0,0-.125.5V33.931a4.489,4.489,0,0,0,8.978,0V12.984C41.753,12.859,41.753,12.61,41.628,12.485Zm-5.486-.623,1.247-2,1.247,2Zm3.242,2.244v18.7H35.144v-18.7Zm-.249,21.072a2.149,2.149,0,0,1-1.746,1,1.99,1.99,0,0,1-1.746-1Z" transform="translate(10288.067 3833.023) rotate(-135)"/>
</svg>
