<svg xmlns="http://www.w3.org/2000/svg" viewBox="-255 290 50 40.027">
  <defs>
    <style>
      .cls-1 {
        fill: #fff;
      }
    </style>
  </defs>
  <g id="Group_646" data-name="Group 646" transform="translate(-384 -407)">
    <g id="Group_341" data-name="Group 341" transform="translate(129 697.002)">
      <path id="Path_257" data-name="Path 257" class="cls-1" d="M41.628,12.485,38.262,7a1.134,1.134,0,0,0-1-.5,1.539,1.539,0,0,0-1,.5L33.025,12.36v.125a.75.75,0,0,0-.125.5V33.931a4.489,4.489,0,0,0,8.978,0V12.984C41.753,12.859,41.753,12.61,41.628,12.485Zm-5.486-.623,1.247-2,1.247,2Zm3.242,2.244v18.7H35.144v-18.7Zm-.249,21.072a2.149,2.149,0,0,1-1.746,1,1.99,1.99,0,0,1-1.746-1Z" transform="translate(8.122 1.605)"/>
      <path id="Path_258" data-name="Path 258" class="cls-1" d="M36.908,7.606H7.357V1.123A1.1,1.1,0,0,0,6.359,0,6.538,6.538,0,0,0,1.746,1.621,6.116,6.116,0,0,0,0,6.359V33.417a6.27,6.27,0,0,0,5.486,6.359H36.908a1.118,1.118,0,0,0,1.122-1.122V8.853A1.032,1.032,0,0,0,36.908,7.606ZM35.786,9.975V37.407H5.611a3.734,3.734,0,0,1-3.367-3.99c0-3.616,3.865-4.115,3.99-4.115a1.182,1.182,0,0,0,1-1.122V9.975ZM2.369,6.359a4.106,4.106,0,0,1,1-2.993h0a2.809,2.809,0,0,1,1.746-1V27.058a6.179,6.179,0,0,0-2.743,1.372C2.369,20.7,2.369,10.1,2.369,6.359Z" transform="translate(0 0)"/>
      <path id="Path_259" data-name="Path 259" class="cls-1" d="M9.922,22.744H28.5a1.122,1.122,0,0,0,0-2.244H9.922a1.122,1.122,0,0,0,0,2.244Z" transform="translate(2.173 5.061)"/>
      <path id="Path_260" data-name="Path 260" class="cls-1" d="M9.922,18.644H28.5a1.122,1.122,0,0,0,0-2.244H9.922a1.122,1.122,0,0,0,0,2.244Z" transform="translate(2.173 4.049)"/>
      <path id="Path_261" data-name="Path 261" class="cls-1" d="M13.326,13.444H23.55a1.122,1.122,0,0,0,0-2.244H13.326A1.118,1.118,0,0,0,12.2,12.322C12.079,12.946,12.578,13.444,13.326,13.444Z" transform="translate(3.008 2.765)"/>
    </g>
  </g>
</svg>
