<svg xmlns="http://www.w3.org/2000/svg" viewBox="5475 8878 30 30">
  <defs>
    <style>
      .cls-1, .cls-2, .cls-4 {
        fill: none;
      }

      .cls-1, .cls-2 {
        stroke: #fff;
      }

      .cls-1 {
        stroke-width: 2px;
      }

      .cls-3 {
        stroke: none;
      }
    </style>
  </defs>
  <g id="Group_739" data-name="Group 739" transform="translate(5145 8865)">
    <g id="Ellipse_56" data-name="Ellipse 56" class="cls-1" transform="translate(330 13)">
      <circle class="cls-3" cx="15" cy="15" r="15"/>
      <circle class="cls-4" cx="15" cy="15" r="14"/>
    </g>
    <g id="Group_714" data-name="Group 714" transform="translate(-3493.691 -8846.762)">
      <g id="Ellipse_57" data-name="Ellipse 57" class="cls-2" transform="translate(3834.468 8866)">
        <circle class="cls-3" cx="4.23" cy="4.23" r="4.23"/>
        <circle class="cls-4" cx="4.23" cy="4.23" r="3.73"/>
      </g>
      <path id="Path_451" data-name="Path 451" class="cls-2" d="M7.7.5a7.278,7.278,0,0,1,7.229,5.558c.024.009-14.368.013-14.382,0A6.94,6.94,0,0,1,7.7.5Z" transform="translate(3831 8873.537)"/>
    </g>
  </g>
</svg>
