<svg xmlns="http://www.w3.org/2000/svg" xmlns:xlink="http://www.w3.org/1999/xlink" width="38" height="38" viewBox="0 0 38 38">
<defs>
<clipPath id="clip-path">
<circle id="Ellipse_19" data-name="Ellipse 19" cx="19" cy="19" r="19" transform="translate(3811 -5017)" fill="none" stroke="#707070" stroke-width="1"/>
</clipPath>
</defs>
<g id="Mask_Group_1" data-name="Mask Group 1" transform="translate(-3811 5017)" clip-path="url(#clip-path)">
<g id="Group_879" data-name="Group 879" transform="translate(3817.185 -5012.568)">
<g id="Ellipse_18" data-name="Ellipse 18" transform="translate(4.016)" fill="none" stroke="#4c6e6e" stroke-width="2">
<circle cx="9.036" cy="9.036" r="9.036" stroke="none"/>
<circle cx="9.036" cy="9.036" r="8.036" fill="none"/>
</g>
<g id="Subtraction_2" data-name="Subtraction 2" transform="translate(0 17.683)" fill="none">
<path d="M13.052,28.5a11.34,11.34,0,0,1-5.08-1.2,13.11,13.11,0,0,1-4.149-3.281,15.636,15.636,0,0,1-2.8-4.867A17.727,17.727,0,0,1,1.769,5.488,14.5,14.5,0,0,1,6.42,0,9.005,9.005,0,0,0,9.372,2.118a8.968,8.968,0,0,0,3.68.781,8.968,8.968,0,0,0,3.68-.781A9.006,9.006,0,0,0,19.684,0a14.5,14.5,0,0,1,4.651,5.488,17.379,17.379,0,0,1,1.769,7.7,17.516,17.516,0,0,1-1.026,5.96,15.636,15.636,0,0,1-2.8,4.867A13.11,13.11,0,0,1,18.132,27.3,11.34,11.34,0,0,1,13.052,28.5Z" stroke="none"/>
<path d="M 13.05195999145508 26.50080299377441 C 14.50282001495361 26.50080299377441 15.91304016113281 26.16610336303711 17.24342918395996 25.5059928894043 C 18.55400085449219 24.855712890625 19.73682975769043 23.91797256469727 20.75906944274902 22.71880340576172 C 21.8011302947998 21.49637413024902 22.62129974365234 20.06725311279297 23.19679069519043 18.47111320495605 C 23.79871940612793 16.80171394348145 24.10391998291016 15.02484321594238 24.10391998291016 13.18986320495605 C 24.10391998291016 10.78656387329102 23.56455039978027 8.431173324584961 22.54413032531738 6.378353595733643 C 21.82253837585449 4.926697254180908 20.87581253051758 3.651419639587402 19.76483917236328 2.624604463577271 C 19.08270645141602 3.148268938064575 18.34142684936523 3.589638710021973 17.54735946655273 3.94416332244873 C 16.12850952148438 4.577633380889893 14.61604022979736 4.898833274841309 13.05195999145508 4.898833274841309 C 11.48787975311279 4.898833274841309 9.975410461425781 4.577633380889893 8.556529998779297 3.944153308868408 C 7.762540340423584 3.589643001556396 7.021143436431885 3.14817476272583 6.339076995849609 2.624590396881104 C 5.228113651275635 3.651398420333862 4.281388759613037 4.926682472229004 3.559789896011353 6.378353595733643 C 2.539370059967041 8.431173324584961 2 10.78655338287354 2 13.18986320495605 C 2 15.02484321594238 2.305200099945068 16.80171394348145 2.907119989395142 18.47112274169922 C 3.482620000839233 20.06723403930664 4.30279016494751 21.49636268615723 5.344850063323975 22.71879386901855 C 6.367090225219727 23.91797256469727 7.549920082092285 24.855712890625 8.860480308532715 25.50598335266113 C 10.19087982177734 26.16610336303711 11.60109996795654 26.50080299377441 13.05195999145508 26.50080299377441 M 13.05195999145508 28.50080299377441 C 11.28997039794922 28.50080299377441 9.580670356750488 28.09598350524902 7.971539974212646 27.29757308959961 C 6.417319774627686 26.52640342712402 5.021500110626221 25.42241287231445 3.822819948196411 24.01626396179199 C 2.624160051345825 22.61012268066406 1.683060050010681 20.97270393371582 1.02567994594574 19.14949417114258 C 0.3450900018215179 17.26189422607422 -8.544922991404746e-09 15.2567834854126 -8.544922991404746e-09 13.18986320495605 C -8.544922991404746e-09 10.47929382324219 0.6116600036621094 7.816063404083252 1.768849968910217 5.48810338973999 C 2.891939878463745 3.22873330116272 4.500209808349609 1.330983400344849 6.419809818267822 3.404235940251965e-06 C 7.257369995117188 0.9046233892440796 8.25039005279541 1.617163419723511 9.371919631958008 2.117913484573364 C 10.5325403213501 2.636093378067017 11.77068042755127 2.898833513259888 13.05195999145508 2.898833513259888 C 14.33323955535889 2.898833513259888 15.57137966156006 2.636093378067017 16.73200035095215 2.117913484573364 C 17.85317993164063 1.617343425750732 18.84641075134277 0.9047734141349792 19.6840991973877 3.404235940251965e-06 C 21.60407066345215 1.331253409385681 23.21212005615234 3.229023456573486 24.33506965637207 5.48810338973999 C 25.49225997924805 7.816073417663574 26.10391998291016 10.47930335998535 26.10391998291016 13.18986320495605 C 26.10391998291016 15.2567834854126 25.75882911682129 17.26189422607422 25.0782299041748 19.14949417114258 C 24.42086029052734 20.97270393371582 23.47977066040039 22.61012268066406 22.28109931945801 24.01626396179199 C 21.08242034912109 25.42241287231445 19.68659973144531 26.52640342712402 18.13237953186035 27.29757308959961 C 16.52325057983398 28.09598350524902 14.81394958496094 28.50080299377441 13.05195999145508 28.50080299377441 Z" stroke="none" fill="#4c6e6e"/>
</g>
</g>
</g>
</svg>
