<svg xmlns="http://www.w3.org/2000/svg" width="29.948" height="29.948" viewBox="0 0 29.948 29.948">
<g id="Group_965" data-name="Group 965" transform="translate(-1064.24 -49.776)">
<path id="Exclusion_101" data-name="Exclusion 101" d="M10.065,20.288A10.179,10.179,0,0,1,0,10.112,10.022,10.022,0,0,1,10,0,10.179,10.179,0,0,1,20.065,10.177,10.021,10.021,0,0,1,10.065,20.288ZM10,1.56a8.48,8.48,0,0,0-8.461,8.557,8.613,8.613,0,0,0,8.517,8.61,8.48,8.48,0,0,0,8.461-8.556A8.613,8.613,0,0,0,10,1.56Z" transform="translate(1064.947 64.672) rotate(-45)" fill="#fff" stroke="#fff" stroke-width="1"/>
<rect id="Rectangle_12" data-name="Rectangle 12" width="1.543" height="9.364" transform="translate(1085.755 71.344) rotate(-45)" fill="#fff" stroke="#fff" stroke-width="1"/>
</g>
</svg>
